^D:\TAO\PRO\PRO\DEBUG\DEVICELOG.OBJ|D:\TAO\PRO\PRO\DEBUG\DISPLAY_INFO.OBJ|D:\TAO\PRO\PRO\DEBUG\PRO.OBJ|D:\TAO\PRO\PRO\DEBUG\PRO.RES|D:\TAO\PRO\PRO\DEBUG\PRODLG.OBJ|D:\TAO\PRO\PRO\DEBUG\SCANNER.OBJ|D:\TAO\PRO\PRO\DEBUG\STDAFX.OBJ|D:\TAO\PRO\PRO\FTD2XX.LIB
D:\TAO\PRO\DEBUG\PRO.EXE
D:\TAO\PRO\DEBUG\PRO.ILK
D:\TAO\PRO\DEBUG\PRO.PDB
