^C:\USERS\NSHEL\DOCUMENTS\PRO\PRO\PRO\DEBUG\DISPLAY_INFO.OBJ|C:\USERS\NSHEL\DOCUMENTS\PRO\PRO\PRO\DEBUG\PRO.OBJ|C:\USERS\NSHEL\DOCUMENTS\PRO\PRO\PRO\DEBUG\PRO.RES|C:\USERS\NSHEL\DOCUMENTS\PRO\PRO\PRO\DEBUG\PRODLG.OBJ|C:\USERS\NSHEL\DOCUMENTS\PRO\PRO\PRO\DEBUG\STDAFX.OBJ|C:\USERS\NSHEL\DOCUMENTS\PRO\PRO\PRO\FTD2XX.LIB
/OUT:"C:\USERS\NSHEL\DOCUMENTS\PRO\PRO\DEBUG\PRO.EXE" /INCREMENTAL /NOLOGO /LIBPATH:D:\PRO\PRO\PRO\PRO /MANIFEST /MANIFESTUAC:"level='asInvoker' uiAccess='false'" /manifest:embed /manifestinput:"C:\PROGRAM FILES (X86)\MICROSOFT VISUAL STUDIO\2019\COMMUNITY\VC\TOOLS\MSVC\14.24.28314\INCLUDE\MANIFEST\DPIAWARE.MANIFEST" /DEBUG:FASTLINK /PDB:"C:\USERS\NSHEL\DOCUMENTS\PRO\PRO\DEBUG\PRO.PDB" /SUBSYSTEM:WINDOWS /TLBID:1 /ENTRY:"wWinMainCRTStartup" /DYNAMICBASE /NXCOMPAT /IMPLIB:"C:\USERS\NSHEL\DOCUMENTS\PRO\PRO\DEBUG\PRO.LIB" /MACHINE:X86 DEBUG\PRO.RES
DEBUG\DISPLAY_INFO.OBJ
DEBUG\PRO.OBJ
DEBUG\PRODLG.OBJ
DEBUG\STDAFX.OBJ
FTD2XX.LIB
^D:\TAO\PRO\PRO\DEBUG\DEVICELOG.OBJ|D:\TAO\PRO\PRO\DEBUG\DISPLAY_INFO.OBJ|D:\TAO\PRO\PRO\DEBUG\PRO.OBJ|D:\TAO\PRO\PRO\DEBUG\PRO.RES|D:\TAO\PRO\PRO\DEBUG\PRODLG.OBJ|D:\TAO\PRO\PRO\DEBUG\STDAFX.OBJ|D:\TAO\PRO\PRO\FTD2XX.LIB
/OUT:"D:\TAO\PRO\DEBUG\PRO.EXE" /INCREMENTAL /NOLOGO /LIBPATH:D:\PRO\PRO\PRO\PRO /MANIFEST /MANIFESTUAC:"level='asInvoker' uiAccess='false'" /manifest:embed /manifestinput:"D:\PROGRAM FILES (X86)\MICROSOFT VISUAL STUDIO\2019\COMMUNITY\VC\TOOLS\MSVC\14.25.28610\INCLUDE\MANIFEST\DPIAWARE.MANIFEST" /DEBUG:FASTLINK /PDB:"D:\TAO\PRO\DEBUG\PRO.PDB" /SUBSYSTEM:WINDOWS /TLBID:1 /ENTRY:"wWinMainCRTStartup" /DYNAMICBASE /NXCOMPAT /IMPLIB:"D:\TAO\PRO\DEBUG\PRO.LIB" /MACHINE:X86 DEBUG\PRO.RES
DEBUG\DEVICELOG.OBJ
DEBUG\DISPLAY_INFO.OBJ
DEBUG\PRO.OBJ
DEBUG\PRODLG.OBJ
DEBUG\STDAFX.OBJ
FTD2XX.LIB
^D:\CODE\PRO\PRO\PRO\DEBUG\DEVICELOG.OBJ|D:\CODE\PRO\PRO\PRO\DEBUG\DISPLAY_INFO.OBJ|D:\CODE\PRO\PRO\PRO\DEBUG\PRO.OBJ|D:\CODE\PRO\PRO\PRO\DEBUG\PRO.RES|D:\CODE\PRO\PRO\PRO\DEBUG\PRODLG.OBJ|D:\CODE\PRO\PRO\PRO\DEBUG\SCANNER.OBJ|D:\CODE\PRO\PRO\PRO\DEBUG\STDAFX.OBJ|D:\CODE\PRO\PRO\PRO\FTD2XX.LIB
/OUT:"D:\CODE\PRO\PRO\DEBUG\PRO.EXE" /INCREMENTAL /NOLOGO /LIBPATH:D:\PRO\PRO\PRO\PRO /MANIFEST /MANIFESTUAC:"level='asInvoker' uiAccess='false'" /manifest:embed /manifestinput:"C:\PROGRAM FILES (X86)\MICROSOFT VISUAL STUDIO\2019\COMMUNITY\VC\TOOLS\MSVC\14.25.28610\INCLUDE\MANIFEST\DPIAWARE.MANIFEST" /DEBUG:FASTLINK /PDB:"D:\CODE\PRO\PRO\DEBUG\PRO.PDB" /SUBSYSTEM:WINDOWS /TLBID:1 /ENTRY:"wWinMainCRTStartup" /DYNAMICBASE /NXCOMPAT /IMPLIB:"D:\CODE\PRO\PRO\DEBUG\PRO.LIB" /MACHINE:X86 DEBUG\PRO.RES
DEBUG\DEVICELOG.OBJ
DEBUG\DISPLAY_INFO.OBJ
DEBUG\PRO.OBJ
DEBUG\PRODLG.OBJ
DEBUG\SCANNER.OBJ
DEBUG\STDAFX.OBJ
FTD2XX.LIB
^D:\TAO\PRO\PRO\DEBUG\DEVICELOG.OBJ|D:\TAO\PRO\PRO\DEBUG\DISPLAY_INFO.OBJ|D:\TAO\PRO\PRO\DEBUG\PRO.OBJ|D:\TAO\PRO\PRO\DEBUG\PRO.RES|D:\TAO\PRO\PRO\DEBUG\PRODLG.OBJ|D:\TAO\PRO\PRO\DEBUG\SCANNER.OBJ|D:\TAO\PRO\PRO\DEBUG\STDAFX.OBJ|D:\TAO\PRO\PRO\FTD2XX.LIB
/OUT:"D:\TAO\PRO\DEBUG\PRO.EXE" /INCREMENTAL /NOLOGO /LIBPATH:D:\PRO\PRO\PRO\PRO /MANIFEST /MANIFESTUAC:"level='asInvoker' uiAccess='false'" /manifest:embed /manifestinput:"D:\PROGRAM FILES (X86)\MICROSOFT VISUAL STUDIO\2019\COMMUNITY\VC\TOOLS\MSVC\14.25.28610\INCLUDE\MANIFEST\DPIAWARE.MANIFEST" /DEBUG:FASTLINK /PDB:"D:\TAO\PRO\DEBUG\PRO.PDB" /SUBSYSTEM:WINDOWS /TLBID:1 /ENTRY:"wWinMainCRTStartup" /DYNAMICBASE /NXCOMPAT /IMPLIB:"D:\TAO\PRO\DEBUG\PRO.LIB" /MACHINE:X86 DEBUG\PRO.RES
DEBUG\DEVICELOG.OBJ
DEBUG\DISPLAY_INFO.OBJ
DEBUG\PRO.OBJ
DEBUG\PRODLG.OBJ
DEBUG\SCANNER.OBJ
DEBUG\STDAFX.OBJ
FTD2XX.LIB
