^D:\烧录器\PROGRAMMER APP\AN_428_D2XX_EEPROM_PROGRAMMING_EXAMPLES\FT232R EEPROM MODIFY\FT232R EEPROM MODIFY\STDAFX.CPP
/c /ZI /JMC /nologo /W3 /WX- /diagnostics:column /sdl /Od /Oy- /D WIN32 /D _DEBUG /D _CONSOLE /D _UNICODE /D UNICODE /Gm- /EHsc /RTC1 /MDd /GS /fp:precise /Zc:wchar_t /Zc:forScope /Zc:inline /Yc"stdafx.h" /Fp"DEBUG\FT232R EEPROM MODIFY.PCH" /Fo"DEBUG\\" /Fd"DEBUG\VC142.PDB" /Gd /TP /analyze- /FC D:\烧录器\PROGRAMMER APP\AN_428_D2XX_EEPROM_PROGRAMMING_EXAMPLES\FT232R EEPROM MODIFY\FT232R EEPROM MODIFY\STDAFX.CPP
^D:\烧录器\PROGRAMMER APP\AN_428_D2XX_EEPROM_PROGRAMMING_EXAMPLES\FT232R EEPROM MODIFY\FT232R EEPROM MODIFY\FT232R EEPROM MODIFY.CPP
/c /ZI /JMC /nologo /W3 /WX- /diagnostics:column /sdl /Od /Oy- /D WIN32 /D _DEBUG /D _CONSOLE /D _UNICODE /D UNICODE /Gm- /EHsc /RTC1 /MDd /GS /fp:precise /Zc:wchar_t /Zc:forScope /Zc:inline /Yu"stdafx.h" /Fp"DEBUG\FT232R EEPROM MODIFY.PCH" /Fo"DEBUG\\" /Fd"DEBUG\VC142.PDB" /Gd /TP /analyze- /FC D:\烧录器\PROGRAMMER APP\AN_428_D2XX_EEPROM_PROGRAMMING_EXAMPLES\FT232R EEPROM MODIFY\FT232R EEPROM MODIFY\FT232R EEPROM MODIFY.CPP
