^D:\烧录器\PROGRAMMER APP\AN_428_D2XX_EEPROM_PROGRAMMING_EXAMPLES\FT232R EEPROM MODIFY\FT232R EEPROM MODIFY\DEBUG\FT232R EEPROM MODIFY.OBJ|D:\烧录器\PROGRAMMER APP\AN_428_D2XX_EEPROM_PROGRAMMING_EXAMPLES\FT232R EEPROM MODIFY\FT232R EEPROM MODIFY\DEBUG\STDAFX.OBJ|D:\烧录器\PROGRAMMER APP\AN_428_D2XX_EEPROM_PROGRAMMING_EXAMPLES\FT232R EEPROM MODIFY\FT232R EEPROM MODIFY\FTD2XX.LIB
/OUT:"D:\烧录器\PROGRAMMER APP\AN_428_D2XX_EEPROM_PROGRAMMING_EXAMPLES\FT232R EEPROM MODIFY\DEBUG\FT232R EEPROM MODIFY.EXE" /INCREMENTAL /NOLOGO KERNEL32.LIB USER32.LIB GDI32.LIB WINSPOOL.LIB COMDLG32.LIB ADVAPI32.LIB SHELL32.LIB OLE32.LIB OLEAUT32.LIB UUID.LIB ODBC32.LIB ODBCCP32.LIB /MANIFEST /MANIFESTUAC:"level='asInvoker' uiAccess='false'" /manifest:embed /DEBUG:FASTLINK /PDB:"D:\烧录器\PROGRAMMER APP\AN_428_D2XX_EEPROM_PROGRAMMING_EXAMPLES\FT232R EEPROM MODIFY\DEBUG\FT232R EEPROM MODIFY.PDB" /SUBSYSTEM:CONSOLE /TLBID:1 /DYNAMICBASE /NXCOMPAT /IMPLIB:"D:\烧录器\PROGRAMMER APP\AN_428_D2XX_EEPROM_PROGRAMMING_EXAMPLES\FT232R EEPROM MODIFY\DEBUG\FT232R EEPROM MODIFY.LIB" /MACHINE:X86 "DEBUG\FT232R EEPROM MODIFY.OBJ"
DEBUG\STDAFX.OBJ
FTD2XX.LIB
