^C:\USERS\JNSHELL\DESKTOP\TRANSFER_VS1.0.0.3\TRANSFER\TRANSFERDEMO\APP_OTA_DEMO.CPP
/c /IC:\Users\Jnshell\Desktop\TRANSFER_VS1.0.0.3\TRANSFER\TransferDll_D /I"E:\Work\productline\download tool\extend" /ZI /nologo /W3 /WX- /Od /Oy- /D WIN32 /D _DEBUG /D _CONSOLE /D _MBCS /Gm /EHsc /RTC1 /MDd /GS /fp:precise /Zc:wchar_t /Zc:forScope /Fo"DEBUG\\" /Fd"DEBUG\VC120.PDB" /Gd /TP /analyze- C:\USERS\JNSHELL\DESKTOP\TRANSFER_VS1.0.0.3\TRANSFER\TRANSFERDEMO\APP_OTA_DEMO.CPP
^C:\USERS\JNSHELL\DESKTOP\TRANSFER_VS1.0.0.3\TRANSFER\TRANSFERDEMO\CALIBRATEAUTO_MAIN.CPP
/c /IC:\Users\Jnshell\Desktop\TRANSFER_VS1.0.0.3\TRANSFER\TransferDll_D /I"E:\Work\productline\download tool\extend" /ZI /nologo /W3 /WX- /Od /Oy- /D WIN32 /D _DEBUG /D _CONSOLE /D _MBCS /Gm /EHsc /RTC1 /MDd /GS /fp:precise /Zc:wchar_t /Zc:forScope /Fo"DEBUG\\" /Fd"DEBUG\VC120.PDB" /Gd /TP /analyze- C:\USERS\JNSHELL\DESKTOP\TRANSFER_VS1.0.0.3\TRANSFER\TRANSFERDEMO\CALIBRATEAUTO_MAIN.CPP
^C:\USERS\JNSHELL\DESKTOP\TRANSFER_VS1.0.0.3\TRANSFER\TRANSFERDEMO\MODIFY_FACTORY_MAIN.CPP
/c /IC:\Users\Jnshell\Desktop\TRANSFER_VS1.0.0.3\TRANSFER\TransferDll_D /I"E:\Work\productline\download tool\extend" /ZI /nologo /W3 /WX- /Od /Oy- /D WIN32 /D _DEBUG /D _CONSOLE /D _MBCS /Gm /EHsc /RTC1 /MDd /GS /fp:precise /Zc:wchar_t /Zc:forScope /Fo"DEBUG\\" /Fd"DEBUG\VC120.PDB" /Gd /TP /analyze- C:\USERS\JNSHELL\DESKTOP\TRANSFER_VS1.0.0.3\TRANSFER\TRANSFERDEMO\MODIFY_FACTORY_MAIN.CPP
^C:\USERS\JNSHELL\DESKTOP\TRANSFER_VS1.0.0.3\TRANSFER\TRANSFERDEMO\MODIFY_TRIM_MAIN.CPP
/c /IC:\Users\Jnshell\Desktop\TRANSFER_VS1.0.0.3\TRANSFER\TransferDll_D /I"E:\Work\productline\download tool\extend" /ZI /nologo /W3 /WX- /Od /Oy- /D WIN32 /D _DEBUG /D _CONSOLE /D _MBCS /Gm /EHsc /RTC1 /MDd /GS /fp:precise /Zc:wchar_t /Zc:forScope /Fo"DEBUG\\" /Fd"DEBUG\VC120.PDB" /Gd /TP /analyze- C:\USERS\JNSHELL\DESKTOP\TRANSFER_VS1.0.0.3\TRANSFER\TRANSFERDEMO\MODIFY_TRIM_MAIN.CPP
^C:\USERS\JNSHELL\DESKTOP\TRANSFER_VS1.0.0.3\TRANSFER\TRANSFERDEMO\RAMRUN_DEMO.CPP
/c /IC:\Users\Jnshell\Desktop\TRANSFER_VS1.0.0.3\TRANSFER\TransferDll_D /I"E:\Work\productline\download tool\extend" /ZI /nologo /W3 /WX- /Od /Oy- /D WIN32 /D _DEBUG /D _CONSOLE /D _MBCS /Gm /EHsc /RTC1 /MDd /GS /fp:precise /Zc:wchar_t /Zc:forScope /Fo"DEBUG\\" /Fd"DEBUG\VC120.PDB" /Gd /TP /analyze- C:\USERS\JNSHELL\DESKTOP\TRANSFER_VS1.0.0.3\TRANSFER\TRANSFERDEMO\RAMRUN_DEMO.CPP
^C:\USERS\JNSHELL\DESKTOP\TRANSFER_VS1.0.0.3\TRANSFER\TRANSFERDEMO\READ_INFORMATIONS_MAIN.CPP
/c /IC:\Users\Jnshell\Desktop\TRANSFER_VS1.0.0.3\TRANSFER\TransferDll_D /I"E:\Work\productline\download tool\extend" /ZI /nologo /W3 /WX- /Od /Oy- /D WIN32 /D _DEBUG /D _CONSOLE /D _MBCS /Gm /EHsc /RTC1 /MDd /GS /fp:precise /Zc:wchar_t /Zc:forScope /Fo"DEBUG\\" /Fd"DEBUG\VC120.PDB" /Gd /TP /analyze- C:\USERS\JNSHELL\DESKTOP\TRANSFER_VS1.0.0.3\TRANSFER\TRANSFERDEMO\READ_INFORMATIONS_MAIN.CPP
^C:\USERS\JNSHELL\DESKTOP\TRANSFER_VS1.0.0.3\TRANSFER\TRANSFERDEMO\STDAFX.CPP
/c /IC:\Users\Jnshell\Desktop\TRANSFER_VS1.0.0.3\TRANSFER\TransferDll_D /I"E:\Work\productline\download tool\extend" /ZI /nologo /W3 /WX- /Od /Oy- /D WIN32 /D _DEBUG /D _CONSOLE /D _MBCS /Gm /EHsc /RTC1 /MDd /GS /fp:precise /Zc:wchar_t /Zc:forScope /Fo"DEBUG\\" /Fd"DEBUG\VC120.PDB" /Gd /TP /analyze- C:\USERS\JNSHELL\DESKTOP\TRANSFER_VS1.0.0.3\TRANSFER\TRANSFERDEMO\STDAFX.CPP
^C:\USERS\JNSHELL\DESKTOP\TRANSFER_VS1.0.0.3\TRANSFER\TRANSFERDEMO\TRANSFERDEMO.CPP
/c /IC:\Users\Jnshell\Desktop\TRANSFER_VS1.0.0.3\TRANSFER\TransferDll_D /I"E:\Work\productline\download tool\extend" /ZI /nologo /W3 /WX- /Od /Oy- /D WIN32 /D _DEBUG /D _CONSOLE /D _MBCS /Gm /EHsc /RTC1 /MDd /GS /fp:precise /Zc:wchar_t /Zc:forScope /Fo"DEBUG\\" /Fd"DEBUG\VC120.PDB" /Gd /TP /analyze- C:\USERS\JNSHELL\DESKTOP\TRANSFER_VS1.0.0.3\TRANSFER\TRANSFERDEMO\TRANSFERDEMO.CPP
