^C:\USERS\NSHEL\DOCUMENTS\PRO\PRO\PRO\FTD2XX.LIB|C:\USERS\NSHEL\DOCUMENTS\PRO\PRO\PRO\RELEASE\DISPLAY_INFO.OBJ|C:\USERS\NSHEL\DOCUMENTS\PRO\PRO\PRO\RELEASE\PRO.OBJ|C:\USERS\NSHEL\DOCUMENTS\PRO\PRO\PRO\RELEASE\PRO.RES|C:\USERS\NSHEL\DOCUMENTS\PRO\PRO\PRO\RELEASE\PRODLG.OBJ|C:\USERS\NSHEL\DOCUMENTS\PRO\PRO\PRO\RELEASE\STDAFX.OBJ
/OUT:"C:\USERS\NSHEL\DOCUMENTS\PRO\PRO\RELEASE\PRO.EXE" /INCREMENTAL:NO /NOLOGO /MANIFEST /MANIFESTUAC:"level='asInvoker' uiAccess='false'" /manifest:embed /manifestinput:"C:\PROGRAM FILES (X86)\MICROSOFT VISUAL STUDIO\2019\COMMUNITY\VC\TOOLS\MSVC\14.24.28314\INCLUDE\MANIFEST\DPIAWARE.MANIFEST" /DEBUG /PDB:"C:\USERS\NSHEL\DOCUMENTS\PRO\PRO\RELEASE\PRO.PDB" /SUBSYSTEM:WINDOWS /OPT:REF /OPT:ICF /LTCG:incremental /TLBID:1 /ENTRY:"wWinMainCRTStartup" /DYNAMICBASE /NXCOMPAT /IMPLIB:"C:\USERS\NSHEL\DOCUMENTS\PRO\PRO\RELEASE\PRO.LIB" /MACHINE:X86 /SAFESEH RELEASE\PRO.RES
RELEASE\DISPLAY_INFO.OBJ
RELEASE\PRO.OBJ
RELEASE\PRODLG.OBJ
RELEASE\STDAFX.OBJ
FTD2XX.LIB
