^E:\WORK\PRODUCTLINE\DOWNLOAD TOOL\EXTEND\TRANSFERDLL\TRANSFERDEMO\DEBUG\APP_OTA_DEMO.OBJ|E:\WORK\PRODUCTLINE\DOWNLOAD TOOL\EXTEND\TRANSFERDLL\TRANSFERDEMO\DEBUG\CALIBRATEAUTO_MAIN.OBJ|E:\WORK\PRODUCTLINE\DOWNLOAD TOOL\EXTEND\TRANSFERDLL\TRANSFERDEMO\DEBUG\MODIFY_FACTORY_MAIN.OBJ|E:\WORK\PRODUCTLINE\DOWNLOAD TOOL\EXTEND\TRANSFERDLL\TRANSFERDEMO\DEBUG\MODIFY_TRIM_MAIN.OBJ|E:\WORK\PRODUCTLINE\DOWNLOAD TOOL\EXTEND\TRANSFERDLL\TRANSFERDEMO\DEBUG\RAMRUN_DEMO.OBJ|E:\WORK\PRODUCTLINE\DOWNLOAD TOOL\EXTEND\TRANSFERDLL\TRANSFERDEMO\DEBUG\READ_INFORMATIONS_MAIN.OBJ|E:\WORK\PRODUCTLINE\DOWNLOAD TOOL\EXTEND\TRANSFERDLL\TRANSFERDEMO\DEBUG\STDAFX.OBJ|E:\WORK\PRODUCTLINE\DOWNLOAD TOOL\EXTEND\TRANSFERDLL\TRANSFERDEMO\DEBUG\TRANSFERDEMO.EXE.EMBED.MANIFEST.RES|E:\WORK\PRODUCTLINE\DOWNLOAD TOOL\EXTEND\TRANSFERDLL\TRANSFERDEMO\DEBUG\TRANSFERDEMO.OBJ
C:\WINDOWS\GLOBALIZATION\SORTING\SORTDEFAULT.NLS
C:\PROGRAM FILES (X86)\MICROSOFT SDKS\WINDOWS\V7.0A\LIB\KERNEL32.LIB
C:\PROGRAM FILES (X86)\MICROSOFT SDKS\WINDOWS\V7.0A\LIB\USER32.LIB
C:\PROGRAM FILES (X86)\MICROSOFT SDKS\WINDOWS\V7.0A\LIB\GDI32.LIB
C:\PROGRAM FILES (X86)\MICROSOFT SDKS\WINDOWS\V7.0A\LIB\WINSPOOL.LIB
C:\PROGRAM FILES (X86)\MICROSOFT SDKS\WINDOWS\V7.0A\LIB\COMDLG32.LIB
C:\PROGRAM FILES (X86)\MICROSOFT SDKS\WINDOWS\V7.0A\LIB\ADVAPI32.LIB
C:\PROGRAM FILES (X86)\MICROSOFT SDKS\WINDOWS\V7.0A\LIB\SHELL32.LIB
C:\PROGRAM FILES (X86)\MICROSOFT SDKS\WINDOWS\V7.0A\LIB\OLE32.LIB
C:\PROGRAM FILES (X86)\MICROSOFT SDKS\WINDOWS\V7.0A\LIB\OLEAUT32.LIB
C:\PROGRAM FILES (X86)\MICROSOFT SDKS\WINDOWS\V7.0A\LIB\UUID.LIB
C:\PROGRAM FILES (X86)\MICROSOFT SDKS\WINDOWS\V7.0A\LIB\ODBC32.LIB
C:\PROGRAM FILES (X86)\MICROSOFT SDKS\WINDOWS\V7.0A\LIB\ODBCCP32.LIB
E:\WORK\PRODUCTLINE\DOWNLOAD TOOL\EXTEND\TRANSFERDLL\TRANSFERDEMO\DEBUG\TRANSFERDEMO.EXE.EMBED.MANIFEST.RES
E:\WORK\PRODUCTLINE\DOWNLOAD TOOL\EXTEND\TRANSFERDLL\TRANSFERDEMO\DEBUG\APP_OTA_DEMO.OBJ
E:\WORK\PRODUCTLINE\DOWNLOAD TOOL\EXTEND\TRANSFERDLL\TRANSFERDEMO\DEBUG\CALIBRATEAUTO_MAIN.OBJ
E:\WORK\PRODUCTLINE\DOWNLOAD TOOL\EXTEND\TRANSFERDLL\TRANSFERDEMO\DEBUG\MODIFY_FACTORY_MAIN.OBJ
E:\WORK\PRODUCTLINE\DOWNLOAD TOOL\EXTEND\TRANSFERDLL\TRANSFERDEMO\DEBUG\MODIFY_TRIM_MAIN.OBJ
E:\WORK\PRODUCTLINE\DOWNLOAD TOOL\EXTEND\TRANSFERDLL\TRANSFERDEMO\DEBUG\RAMRUN_DEMO.OBJ
E:\WORK\PRODUCTLINE\DOWNLOAD TOOL\EXTEND\TRANSFERDLL\TRANSFERDEMO\DEBUG\READ_INFORMATIONS_MAIN.OBJ
E:\WORK\PRODUCTLINE\DOWNLOAD TOOL\EXTEND\TRANSFERDLL\TRANSFERDEMO\DEBUG\STDAFX.OBJ
E:\WORK\PRODUCTLINE\DOWNLOAD TOOL\EXTEND\TRANSFERDLL\TRANSFERDEMO\DEBUG\TRANSFERDEMO.OBJ
C:\WINDOWS\SYSTEM32\TZRES.DLL
E:\WORK\PRODUCTLINE\DOWNLOAD TOOL\EXTEND\TRANSFERDLL\DEBUG\TRANSFERDEMO.ILK
E:\WORK\PRODUCTLINE\DOWNLOAD TOOL\EXTEND\TRANSFERDLL\DEBUG\TRANSFERDEMO.EXE
E:\WORK\PRODUCTLINE\DOWNLOAD TOOL\EXTEND\TRANSFERDLL\DEBUG\TRANSFERDEMO.PDB
E:\WORK\PRODUCTLINE\DOWNLOAD TOOL\EXTEND\TRANSFERDLL\DEBUG\TRANSFERDLL.LIB
C:\PROGRAM FILES (X86)\MICROSOFT VISUAL STUDIO 10.0\VC\LIB\MSVCRTD.LIB
C:\PROGRAM FILES (X86)\MICROSOFT VISUAL STUDIO 10.0\VC\LIB\OLDNAMES.LIB
C:\PROGRAM FILES (X86)\MICROSOFT VISUAL STUDIO 10.0\VC\BIN\CVTRES.EXE
C:\PROGRAM FILES (X86)\MICROSOFT VISUAL STUDIO 10.0\VC\BIN\LINK.EXE
